
<svg width="40px" height="40px" viewBox="0 0 40 40" version="1.1" xmlns="http://www.w3.org/2000/svg" xmlns:xlink="http://www.w3.org/1999/xlink">
    <defs>
        <path d="M19.564878,0.382926829 C8.7595122,0.382926829 0,9.14243902 0,19.9473171 C0,30.7526829 8.7595122,39.5121951 19.564878,39.5121951 C30.3697561,39.5121951 39.1292683,30.7526829 39.1292683,19.9473171 C39.1292683,9.14243902 30.3697561,0.382926829 19.564878,0.382926829 Z" id="path-1"></path>
        <linearGradient x1="0.25781251%" y1="49.7500002%" x2="101.257813%" y2="49.7500002%" id="linearGradient-3">
            <stop stop-color="#FAE189" offset="0%"></stop>
            <stop stop-color="#FBBB45" offset="18.9057984%"></stop>
            <stop stop-color="#F05374" offset="36.3800578%"></stop>
            <stop stop-color="#D53792" offset="54.8861994%"></stop>
            <stop stop-color="#7E4FA0" offset="74.4761561%"></stop>
            <stop stop-color="#5B5CA9" offset="100%"></stop>
        </linearGradient>
    </defs>
    <g id="Page-1" stroke="none" stroke-width="1" fill="none" fill-rule="evenodd">
        <g id="12_Desktop-HD" transform="translate(-650.000000, -356.000000)">
            <g id="Group-11" transform="translate(650.000000, 356.000000)">
                <g id="Group-3" transform="translate(0.000000, 0.104829)">
                    <mask id="mask-2" fill="white">
                        <use xlink:href="#path-1"></use>
                    </mask>
                    <g id="Clip-2"></g>
                    <path d="M19.564878,0.382926829 C8.7595122,0.382926829 0,9.14243902 0,19.9473171 C0,30.7526829 8.7595122,39.5121951 19.564878,39.5121951 C30.3697561,39.5121951 39.1292683,30.7526829 39.1292683,19.9473171 C39.1292683,9.14243902 30.3697561,0.382926829 19.564878,0.382926829 Z" id="Fill-1" fill="url(#linearGradient-3)" mask="url(#mask-2)"></path>
                </g>
                <g id="Group-10" transform="translate(6.341463, 6.934098)" fill="#FFFFFF">
                    <path d="M20.1490732,4.78453659 C19.309561,4.78453659 18.6290732,5.46502439 18.6290732,6.30453659 C18.6290732,7.14356098 19.309561,7.82404878 20.1490732,7.82404878 C20.9885854,7.82404878 21.6685854,7.14356098 21.6685854,6.30453659 C21.6685854,5.46502439 20.9885854,4.78453659 20.1490732,4.78453659" id="Fill-4"></path>
                    <path d="M13.3917073,17.2080976 C11.1365854,17.2080976 9.30195122,15.3734634 9.30195122,13.1183415 C9.30195122,10.8632195 11.1365854,9.02858537 13.3917073,9.02858537 C15.6468293,9.02858537 17.4814634,10.8632195 17.4814634,13.1183415 C17.4814634,15.3734634 15.6468293,17.2080976 13.3917073,17.2080976 M13.3917073,6.73346341 C9.87121951,6.73346341 7.00682927,9.59785366 7.00682927,13.1183415 C7.00682927,16.6388293 9.87121951,19.5032195 13.3917073,19.5032195 C16.9121951,19.5032195 19.7765854,16.6388293 19.7765854,13.1183415 C19.7765854,9.59785366 16.9121951,6.73346341 13.3917073,6.73346341" id="Fill-6"></path>
                    <path d="M8.10970732,2.59443902 C5.16043902,2.59443902 2.76141463,4.99346341 2.76141463,7.94273171 L2.76141463,18.2939512 C2.76141463,21.2432195 5.16043902,23.6422439 8.10970732,23.6422439 L18.460439,23.6422439 C21.4097073,23.6422439 23.8092195,21.2432195 23.8092195,18.2939512 L23.8092195,7.94273171 C23.8092195,4.99346341 21.4097073,2.59443902 18.460439,2.59443902 L8.10970732,2.59443902 Z M18.460439,26.0812683 L8.10970732,26.0812683 C3.81556098,26.0812683 0.322390244,22.5876098 0.322390244,18.2939512 L0.322390244,7.94273171 C0.322390244,3.64858537 3.81556098,0.155414634 8.10970732,0.155414634 L18.460439,0.155414634 C22.7540976,0.155414634 26.2482439,3.64858537 26.2482439,7.94273171 L26.2482439,18.2939512 C26.2482439,22.5876098 22.7540976,26.0812683 18.460439,26.0812683 Z" id="Fill-8"></path>
                </g>
            </g>
        </g>
    </g>
</svg>
