
<svg width="26px" height="53px" viewBox="0 0 26 53" version="1.1" xmlns="http://www.w3.org/2000/svg" xmlns:xlink="http://www.w3.org/1999/xlink">
    <g id="Page-1" stroke="none" stroke-width="1" fill="none" fill-rule="evenodd" opacity="0.399553571">
        <g id="02_Desktop-HD" transform="translate(-30.000000, -497.000000)" fill="#FFFFFF" fill-rule="nonzero">
            <polygon id="Fill-1-Copy" transform="translate(43.000000, 523.500000) rotate(-180.000000) translate(-43.000000, -523.500000) " points="30 497 30 507.637993 45.562724 523.5 30.0244158 539.337122 30 550 56 523.5"></polygon>
        </g>
    </g>
</svg>
