
<svg width="24px" height="24px" viewBox="0 0 24 24" version="1.1" xmlns="http://www.w3.org/2000/svg" xmlns:xlink="http://www.w3.org/1999/xlink">
    <defs>
        <polygon id="path-1" points="-9.9475983e-14 0 24.1875 0 24.1875 24.249875 -9.9475983e-14 24.249875"></polygon>
    </defs>
    <g id="Page-1" stroke="none" stroke-width="1" fill="none" fill-rule="evenodd">
        <g id="09_Desktop-HD" transform="translate(-708.000000, -238.000000)">
            <g id="Group-3" transform="translate(708.000000, 238.000000)">
                <mask id="mask-2" fill="white">
                    <use xlink:href="#path-1"></use>
                </mask>
                <g id="Clip-2"></g>
                <path d="M18.75,10.625 C18.75,12.803442 17.8965806,14.834692 16.3654891,16.3654891 C14.834692,17.8962862 12.7740036,18.75 10.625,18.75 C8.47629076,18.75 6.41560236,17.8962862 4.88451087,16.3654891 C3.35371377,14.834692 2.5,12.7740036 2.5,10.625 C2.5,8.44655797 3.35371377,6.41530797 4.88451087,4.88451087 C6.41560236,3.35371377 8.47629076,2.5 10.625,2.5 C12.8037364,2.5 14.834692,3.35371377 16.3654891,4.88451087 C17.8965806,6.41530797 18.75,8.44655797 18.75,10.625 M23.3558745,21.5033784 L19.0931888,17.2727273 C22.4216512,13.0128993 22.0710256,6.94410319 18.2468409,3.12192875 C16.2321299,1.10872236 13.5462379,0 10.685179,0 C7.82441212,0 5.13822817,1.10872236 3.12380917,3.12192875 C1.10968212,5.13513514 0,7.81941032 0,10.6787469 C0,13.5380835 1.10968212,16.2223587 3.12380917,18.2355651 C5.13822817,20.2487715 7.82441212,21.3574939 10.685179,21.3574939 C13.0499318,21.3574939 15.38549,20.5697174 17.2539366,19.0816953 L21.487136,23.3707002 C21.7501782,23.6332924 22.0710256,23.75 22.4216512,23.75 C22.771985,23.75 23.0928323,23.6041155 23.3558745,23.3707002 C23.8813752,22.8746929 23.8813752,22.0285627 23.3558745,21.5033784" id="Fill-1" fill="#FFFFFF" mask="url(#mask-2)"></path>
            </g>
        </g>
    </g>
</svg>
