{
    "key": "group_5a77f93f339f9",
    "title": "Home Page Settings",
    "fields": false,
    "location": [
        [
            {
                "param": "page_template",
                "operator": "==",
                "value": "page-homepage.php"
            }
        ]
    ],
    "menu_order": 0,
    "position": "normal",
    "style": "default",
    "label_placement": "top",
    "instruction_placement": "label",
    "hide_on_screen": [
        "the_content",
        "excerpt",
        "featured_image"
    ],
    "active": 1,
    "description": "",
    "modified": 1541155312
}